// Jest Snapshot v1, https://goo.gl/fbAQLP

exports[`Home Snapshots 1`] = `
<View>
  <Text>
    Example Rendering Video
  </Text>
  <View
    style={
      Object {
        "alignItems": "center",
        "flex": 1,
        "justifyContent": "center",
      }
    }
  >
    <Text>
      Home Componen
    </Text>
  </View>
</View>
`;
